out.vcd
$timescale 1 us $end
$scope module vcdgen $end
$var wire 1 ! recording $end
$upscope $end
$enddefinitions $end
#0
1!
#3512
0!
#5185
1!
#5694
0!
#6002
1!
#6509
0!
#6835
1!
#7324
0!
#8523
1!
#9007
0!
#9333
1!
#9822
0!
#10176
1!
#10655
0!
#10961
1!
#11475
0!
#12645
1!
#13155
0!
#14326
1!
#14734
0!
#16012
1!
#16500
0!
#17692
1!
#18182
0!
#18537
1!
#18914
0!
#19324
1!
#19832
0!
#21005
1!
#21411
0!
#21848
1!
#22331
0!
#23502
1!
#24009
0!
#25183
1!
#25592
0!
#26000
1!
#26509
0!
#26818
1!
#27328
0!
#28496
1!
#29008
0!
#29314
1!
#29827
0!
#30134
1!
#30642
0!
#31839
1!
#32325
0!
#33494
1!
#34006
0!
#34313
1!
#34822
0!
#35132
1!
#35637
0!
#35993
1!
#36452
0!
#36777
1!
#37184
0!
#37591
1!
#38103
0!
#38411
1!
#38922
0!
#39229
1!
#39737
0!
#40067
1!
#40552
0!
#41751
1!
#42235
0!
#42561
1!
#43050
0!
#43379
1!
#43783
0!
#44190
1!
#44700
0!
#45007
1!
#45519
0!
#45826
1!
#46335
0!
#46645
1!
#47149
0!
#47504
1!
#47964
0!
#48319
1!
#48696
0!
#49106
1!
#49616
0!
#49921
1!
#50434
0!
#51602
1!
#52114
0!
#52421
1!
#52931
0!
#53241
1!
#53746
0!
#54101
1!
#54560
0!
#54915
1!
#55293
0!
#55703
1!
#56212
0!
#56516
1!
#57031
0!
#57338
1!
#57846
0!
#58177
1!
#58661
0!
#59860
1!
#60344
0!
#61542
1!
#62027
0!
#62338
1!
#62842
0!
#63197
1!
#63656
0!
#63985
1!
#64389
0!
#64798
1!
#65307
0!
#65617
1!
#66126
0!
#66434
1!
#66942
0!
#68115
1!
#68625
0!
#68932
1!
#69440
0!
#69796
1!
#70255
0!
#70611
1!
#70988
0!
#72263
1!
#72753
0!
#73108
1!
#73486
0!
#73896
1!
#74404
0!
#75578
1!
#76033
0!
#77261
1!
#77667
0!
#78075
1!
#78582
0!
#78889
1!
#79402
0!
#79710
1!
#80219
0!
#80529
1!
#81034
0!
#81361
1!
#81849
0!
#83049
1!
#83532
0!
#83860
1!
#84347
0!
#85545
1!
#86030
0!
#87207
1!
#87712
0!
#88068
1!
#88527
0!
#88852
1!
#89260
0!
#89697
1!
#90177
0!
#90484
1!
#90996
0!
#91304
1!
#91811
0!
#92121
1!
#92626
0!
#92953
1!
#93441
0!
#93767
1!
#94223
0!
#94611
1!
#95093
0!
#95401
1!
#95911
0!
#96220
1!
#96726
0!
#97082
1!
#97541
0!
#97869
1!
#98275
0!
#98682
1!
#99191
0!
#99500
1!
#100011
0!
#100320
1!
#100827
0!
#101158
1!
#101642
0!
#101969
1!
#102457
0!
#102786
1!
#103190
0!
#103628
1!
#104108
0!
#104418
1!
#104927
0!
#105258
1!
#105742
0!
#106099
1!
#106557
0!
#106884
1!
#107368
0!
#107697
1!
#108155
0!
#108513
1!
#109025
0!
#109336
1!
#109842
0!
#110153
1!
#110656
0!
#110985
1!
#111471
0!
#111827
1!
#112205
0!
#112615
1!
#113121
0!
#113430
1!
#113942
0!
#114250
1!
#114757
0!
#115089
1!
#115572
0!
#115928
1!
#116387
0!
#116714
1!
#117170
0!
#117528
1!
#118040
0!
#118347
1!
#118858
0!
#119167
1!
#119672
0!
#119999
1!
#120487
0!
#120843
1!
#121221
0!
#121658
1!
#122087
0!
#122473
1!
#122956
0!
#123265
1!
#123772
0!
#124083
1!
#124587
0!
#124944
1!
#125401
0!
#125730
1!
#126135
0!
#126542
1!
#127052
0!
#127360
1!
#127872
0!
#128180
1!
#128686
0!
#129043
1!
#129501
0!
#129830
1!
#130313
0!
#130645
1!
#131101
0!
#131488
1!
#131970
0!
#132279
1!
#132787
0!
#133099
1!
#133602
0!
#133931
1!
#134417
0!
#134745
1!
#135151
0!
#135562
1!
#136018
0!
#137272
1!
#137672
0!
#138955
1!
#139332
0!
#140637
1!
#141095
0!
#141422
1!
#141829
0!
#142237
1!
#142745
0!
#143919
1!
#144349
0!
#145632
1!
#146087
0!
#146417
1!
#146874
0!
#164384
1!
#167869
0!
#169567
1!
#170049
0!
#170375
1!
#170864
0!
#171220
1!
#171597
0!
#172877
1!
#173361
0!
#173717
1!
#174094
0!
#174532
1!
#175012
0!
#175319
1!
#175831
0!
#177029
1!
#177511
0!
#178682
1!
#179190
0!
#180367
1!
#180772
0!
#182048
1!
#182536
0!
#182867
1!
#183319
0!
#183707
1!
#184189
0!
#185361
1!
#185818
0!
#186178
1!
#186688
0!
#187860
1!
#188367
0!
#189541
1!
#189997
0!
#190357
1!
#190866
0!
#191174
1!
#191684
0!
#192854
1!
#193365
0!
#193673
1!
#194182
0!
#194492
1!
#194997
0!
#196173
1!
#196680
0!
#197879
1!
#198362
0!
#198670
1!
#199176
0!
#199504
1!
#199991
0!
#200321
1!
#200725
0!
#201134
1!
#201591
0!
#201977
1!
#202460
0!
#202768
1!
#203276
0!
#203608
1!
#204091
0!
#204448
1!
#204906
0!
#206107
1!
#206589
0!
#206916
1!
#207405
0!
#207731
1!
#208188
0!
#208576
1!
#209057
0!
#209365
1!
#209875
0!
#210207
1!
#210690
0!
#211020
1!
#211505
0!
#211834
1!
#212239
0!
#212648
1!
#213105
0!
#213465
1!
#213974
0!
#214283
1!
#214790
0!
#215964
1!
#216474
0!
#216782
1!
#217288
0!
#217617
1!
#218103
0!
#218433
1!
#218915
0!
#219246
1!
#219703
0!
#220090
1!
#220572
0!
#220880
1!
#221389
0!
#221698
1!
#222204
0!
#222532
1!
#223019
0!
#224220
1!
#224702
0!
#225903
1!
#226385
0!
#226714
1!
#227200
0!
#227530
1!
#227935
0!
#228342
1!
#228800
0!
#229161
1!
#229668
0!
#230002
1!
#230485
0!
#230817
1!
#231300
0!
#232480
1!
#232983
0!
#233315
1!
#233797
0!
#234125
1!
#234612
0!
#234940
1!
#235346
0!
#236624
1!
#237030
0!
#237438
1!
#237895
0!
#238255
1!
#238763
0!
#239964
1!
#240393
0!
#241647
1!
#242047
0!
#242434
1!
#242941
0!
#243251
1!
#243760
0!
#244093
1!
#244575
0!
#244904
1!
#245390
0!
#245718
1!
#246125
0!
#247430
1!
#247888
0!
#248218
1!
#248623
0!
#249900
1!
#250386
0!
#251582
1!
#252068
0!
#252396
1!
#252803
0!
#253240
1!
#253668
0!
#254028
1!
#254536
0!
#254845
1!
#255353
0!
#255685
1!
#256167
0!
#256496
1!
#256982
0!
#257310
1!
#257717
0!
#258155
1!
#258584
0!
#258945
1!
#259453
0!
#259786
1!
#260268
0!
#260601
1!
#261083
0!
#261412
1!
#261899
0!
#262227
1!
#262682
0!
#263041
1!
#263550
0!
#263860
1!
#264368
0!
#264701
1!
#265183
0!
#265511
1!
#265998
0!
#266329
1!
#266733
0!
#267140
1!
#267599
0!
#267985
1!
#268467
0!
#268778
1!
#269283
0!
#269595
1!
#270098
0!
#270428
1!
#270913
0!
#271242
1!
#271648
0!
#272054
1!
#272515
0!
#272874
1!
#273383
0!
#273715
1!
#274198
0!
#274528
1!
#275013
0!
#275342
1!
#275749
0!
#276186
1!
#276614
0!
#277001
1!
#277481
0!
#277794
1!
#278299
0!
#278633
1!
#279114
0!
#279445
1!
#279929
0!
#280258
1!
#280665
0!
#281102
1!
#281532
0!
#281892
1!
#282400
0!
#282734
1!
#283215
0!
#283529
1!
#284030
0!
#284359
1!
#284847
0!
#285203
1!
#285629
0!
#285989
1!
#286448
0!
#286811
1!
#287315
0!
#287627
1!
#288129
0!
#288459
1!
#288945
0!
#289275
1!
#289681
0!
#290089
1!
#290547
0!
#290934
1!
#291415
0!
#291726
1!
#292231
0!
#292545
1!
#293046
0!
#293375
1!
#293860
0!
#294190
1!
#294596
0!
#295006
1!
#295463
0!
#295824
1!
#296331
0!
#296665
1!
#297146
0!
#297476
1!
#297961
0!
#298292
1!
#298698
0!
#299106
1!
#299562
0!
#299921
1!
#300428
0!
#301603
1!
#302061
0!
#303286
1!
#303789
0!
#304969
1!
#305375
0!
#305783
1!
#306239
0!
#306600
1!
#307057
0!
#308280
1!
#308738
0!
#309992
1!
#310464
0!
#310776
1!
